.3dm
.3ds
.3g2
.3gp
.7z
.a
.aac
.ac3
.accdb
.accft
.adt
.adx
.adz
.agda
.agr
.ahk
.ai
.aifc
.aiff
.aio
.amf
.amg
.aml
.amlx
.ampl
.amr
.amv
.ani
.ann
.ape
.apk
.arc
.art
.asax
.ascx
.asf
.ashx
.asm
.asp
.aspx
.ass
.asx
.at3
.atg
.avi
.awk
.ax
.axf
.b
.bak
.bar
.bas
.bat
.bdt
.beam
.bin
.blend
.bm3
.bmp
.bps
.bz2
.c
.c++
.c32
.cab
.cbt
.cc
.cd
.cdf
.cdp
.cdr
.cer
.cfg
.cgm
.chm
.cho
.cia
.cif
.class
.cmd
.cmod
.cn1
.coe
.com
.compile
.conf
.cpc
.cpl
.cpp
.cpt
.cr2
.crai
.crt
.cs
.csproj
.css
.csv
.cur
.d
.daa
.dae
.daf
.dart
.dat
.dats
.db
.dba
.dbf
.dbg
.dgn
.dicom
.dif
.dired
.divx
.dll
.dmg
.dmp
.dn
.dng
.doc
.docm
.docx
.dot
.dotx
.dpx
.drc
.dsc
.dtd
.dvc
.dwf
.dwfz
.dwg
.dxf
.e
.e00
.e2d
.e57
.ear
.ebd
.ec
.ecc
.ede
.edf
.efi
.eis
.el
.elc
.elf
.email
.emaker
.emf
.eml
.emz
.eot
.ep
.epa
.eps
.epub
.erl
.es6
.escpcb
.escsch
.esd
.etl
.eu4
.evt
.evtx
.ex
.exe
.exp
.exs
.f
.f01
.f03
.f08
.f18
.f4
.f4v
.f77
.f90
.f95
.fa
.faa
.factor
.fasta
.fastq
.fb
.fb2
.fbx
.fen
.ff
.ffn
.fh11
.fit
.fits
.flac
.flame
.flp
.flv
.fna
.fni
.fnx
.fodg
.fodp
.fods
.fodt
.for
.fql
.frag
.freq
.frm
.frq7
.fs
.fth
.g
.g4
.gbr
.gdb
.gdf
.gdt
.ged
.ggb
.gif
.gmi
.gmk
.gml
.go
.gpx
.grp
.gtf
.gv
.gz
.h
.h!
.h++
.h--
.h264
.ha
.hack
.har
.hdi
.hdmp
.hh
.hof
.hoi4
.hpp
.hta
.htm
.html
.hum
.hxx
.i
.icc
.ice
.icl
.ico
.ifc
.igc
.iges
.img
.indd
.ini
.inx
.io
.ipt
.irx
.iso
.it
.j
.j2c
.jar
.jav
.java
.jbig
.jl
.jnlp
.jp2
.jpeg
.jpg
.js
.json
.jsp
.k
.key
.kml
.kmz
.ko
.kra
.ksy
.kt
.kv
.kve
.l
.label
.lbr
.ldb
.ldt
.lha
.lib
.lisp
.ll
.lnk
.log
.lua
.lwo
.lws
.lxo
.lz
.m
.m2ts
.m3u
.m3u8
.m4a
.m4p
.m4r
.m4v
.m64
.ma
.map
.markdown
.max
.mb
.mcf
.md
.mdb
.mdf
.mdg
.mdi
.mdl
.mds
.mex
.mgf
.mid
.mka
.mkv
.mm
.mnt
.mobi
.mod
.modules
.mol
.mol2
.mop
.mov
.mp2
.mp3
.mp4
.mpa
.mpc
.mpd
.mpeg
.mpg
.msc
.msdl
.msf
.msi
.mso
.msstyles
.msu
.mts
.mxf
.myd
.myi
.n
.nb
.nc
.ncd
.nef
.neu
.nf
.nfo
.nim
.nmf
.npr
.nrw
.ns1
.nsa
.nsf
.nsv
.numbers
.nwd
.nwf
.o
.obj
.obs
.ocx
.odb
.odf
.odg
.odp
.ods
.odt
.oga
.ogg
.ogv
.ogx
.opus
.orf
.org
.osc
.osk
.osm
.ost
.osz
.otb
.otf
.otg
.otl
.otp
.ots
.ott
.ov2
.ovl
.owl
.oxt
.p
.p10
.p12
.pack
.pages
.pak
.pal
.pam
.par
.par2
.pas
.pat
.pblib
.pbo
.pcl
.pcs
.pdb
.pde
.pdf
.pdi
.pdm
.pdn
.pds
.pem
.pet
.pfa
.pfam
.pfb
.pfc
.pfm
.pfx
.pgn
.phf
.php
.php3
.php4
.phr
.phy
.pi2
.pie
.pir
.pit
.pk3
.pka
.pkl
.pl
.pli
.plr
.pm
.pma
.png
.pom
.ppeg
.ppsx
.ppt
.pptx
.prj
.proto
.prp
.ps
.ps1
.psd
.psdc
.psm1
.pspimage
.psppalette
.pst
.ptf
.pts
.ptx
.pub
.pup
.py
.pyc
.pyd
.pyo
.pyw
.q
.qfx
.qif
.qlc
.qoi
.qt
.qtvr
.qxd
.qxp
.r
.r00
.r01
.r02
.r2d
.r3d
.r8p
.rad
.ral
.ram
.rap
.rar
.ras
.raw
.rb
.rc
.rdp
.rds
.res
.rfa
.rkt
.rm
.rmd
.rmvb
.rob
.rol
.rpm
.rs
.rsl
.rslf
.rsls
.rst
.rtf
.run
.rvt
.s
.s3m
.s7i
.saif
.sass
.sat
.sav
.sb
.sb2
.sb3
.sbh
.sbv
.sbx
.scala
.scm
.scr
.scss
.sd7
.sdf
.sds
.sdts
.sec
.sed
.seq
.sf
.sfb
.sfx
.sh
.shar
.shp
.shtm
.shtml
.shx
.sid
.sig
.skp
.sl
.sldasm
.sldprt
.sm
.smclvl
.smk
.sno
.so
.spf
.spiff
.spin
.sps
.spt
.spv
.spx
.spz
.sql
.srt
.ssc
.st
.stc
.std
.sti
.stk
.stl
.stm
.sto
.stp
.stw
.sub
.sur
.svc
.svg
.svgz
.swf
.swg
.swift
.swm
.sxc
.sxd
.sxg
.sxi
.sxm
.sxp
.sxw
.sylk
.symboliclink
.t
.tab
.tak
.tar
.taz
.tc
.tga
.thm
.tif
.tiff
.tlb
.tmp
.torrent
.ts
.tsv
.ttc
.ttf
.txt
.u
.ui
.ump
.unv
.uos
.uot
.ups
.url
.usdz
.ust
.ut!
.v
.v4p
.vb
.vbox
.vbox-extpack
.vbproj
.vbr
.vbs
.vbx
.vc6
.vcls
.vda
.vdi
.vdw
.vdx
.vfd
.vi
.vmcz
.vmdk
.vmg
.vmx
.vob
.vpk
.vpm
.vpp
.vpr
.vqm
.vrb
.vs
.vsd
.vsdx
.vsm
.vsq
.vsqx
.vst
.vsto
.vsvnbak
.vtf
.vtt
.vue
.vvvvvv
.w
.war
.wav
.webm
.witness_campaign
.wk1
.wk3
.wks
.wlmp
.wma
.wmdb
.wmf
.wmv
.wos
.x
.x3d
.xar
.xbrl
.xcf
.xdm
.xe
.xex
.xls
.xlsb
.xlsm
.xlsx
.xm
.xmf
.xml
.xp
.xpl
.xps
.xsd
.xsf
.xsl
.xslt
.xsn
.xspf
.xx
.xxe
.xxx
.xyz
.xz
.y
.yaml
.yml
.z
.zip
.zrx
.zs